…
Selecting variables
-------------------

We keep only the relevant variables and reorder them.

    dat3 <- dat2 %>% 
            select(Subj, Item, trial, Qlty, Frq, TPR, lagQlty, lagTrg, rt)
    dat3

    ## # A tibble: 16,409 x 9
    ##    Subj  Item       trial Qlty        Frq   TPR       lagQlty     lagTrg     rt
    ##    <fct> <fct>      <int> <fct>       <fct> <fct>     <fct>       <fct>   <int>
    ##  1 S01   " CAKE"        2 " Degraded" low   unrelated " Degraded" nonword   794
    ##  2 S01   " PARTY"       3 " Clear"    high  unrelated " Degraded" word      506
    ##  3 S01   " SPOT"        5 " Clear"    high  related   " Degraded" nonword   491
    ##  4 S01   " LONG"        9 " Degraded" high  related   " Degraded" nonword   486
    ##  5 S01   " YEAR"       10 " Degraded" high  unrelated " Degraded" word      482
    ##  6 S01   " COUNTRY"    11 " Clear"    high  related   " Degraded" word      542
    ##  7 S01   " HAVE"       15 " Degraded" high  related   " Degraded" nonword   766
    ##  8 S01   " TUSK"       21 " Degraded" low   unrelated " Clear"    nonword   993
    ##  9 S01   " CARDS"      22 " Clear"    low   unrelated " Degraded" word      552
    ## 10 S01   " FIGHT"      24 " Clear"    high  related   " Degraded" nonword   499
    ## # … with 16,399 more rows
…
